// fur generated by blender2ogre 2017-09-14 20:36:28.831310

material fur {
    receive_shadows on
    technique {
        pass fur {
            ambient 0.800000011920929 0.800000011920929 0.800000011920929 1.0
            diffuse 0.6400000190734865 0.6400000190734865 0.6400000190734865 1.0
            specular 0.0 0.0 0.0 1.0 12.5
            emissive 0.0 0.0 0.0 1.0
            
            alpha_to_coverage off 
            colour_write on 
            cull_hardware clockwise 
            depth_check on 
            depth_func less_equal 
            depth_write on 
            illumination_stage  
            light_clip_planes off 
            light_scissor off 
            lighting on 
            normalise_normals off 
            polygon_mode solid 
            scene_blend one zero 
            scene_blend_op add 
            shading gouraud 
            transparent_sorting on 
			
			vertex_program_ref standardVertexProgram {
			
			}
			
			fragment_program_ref standardFragmentProgram {
				param_named use_nor_map int 1
				param_named nor_map int 1
			}

            texture_unit  {
                texture Fur1.jpg 
                tex_address_mode wrap 
                scale 1.0 1.0 
                colour_op modulate 
            }
            texture_unit  {
                texture Fur1_NRM.jpg 
                tex_address_mode wrap 
                scale 1.0 1.0 
                colour_op modulate 
            }
        }
    }
}
